1 10 20
100 200 125
201 210 89
900 1000 174
853069 610336 525
578997 562375 421
213881 920739 525
47597 31136 324
938902 66218 525
837019 53511 509
340797 387558 441
425378 109265 449
906834 189735 525
275364 680067 509
106735 118172 349
773942 871511 525
542996 112168 470
916572 488798 525
549153 690607 509
388723 259725 441
786891 179552 509
621306 131914 470
528445 2238 470
714709 51359 509
17682 761971 509
906361 307585 525
505139 37787 449
196622 530374 470
923275 924858 370
618191 232760 470
795050 970351 525
461416 19840 449
125516 309867 443
387004 642173 509
465208 499149 426
102608 365399 443
923818 408719 525
898980 327894 525
133024 743231 509
526231 283878 470
787726 612038 509
480787 900474 525
678437 811706 504
758045 918574 525
797869 293711 509
40013 940964 525
15222 16489 266
205004 361542 443
39496 744580 509
431986 666501 509
506227 333778 449
896146 701420 525
253915 982861 525
884423 276663 525
66765 627609 509
67513 108046 354
823801 459746 509
44058 265986 443
454720 178555 449
746009 750219 393
307347 701154 509
159052 784841 509
941495 924338 507
624409 159387 470
429696 714222 509
771809 972360 525
511570 818331 509
977912 327562 525
284688 771506 509
140493 689469 509
108979 509667 449
9427 919722 525
629562 796395 504
505227 254785 449
697188 18295 509
635790 852491 525
643659 432200 509
213958 429731 449
591261 244153 470
576891 171571 470
860062 373678 525
261378 787877 509
378732 953137 525
441309 471689 444
361365 884065 525
604157 776701 509
92629 41696 351
122708 951138 525
323050 887675 525
198325 117650 383
773699 858340 525
505539 445491 444
50433 131253 354
507892 964052 525
488925 563501 470
981450 214112 525
294551 427333 449
43353 757627 509
654424 247534 509
110686 594134 470
215345 181297 373
205912 221028 386
672353 766513 504
894473 18383 525
832524 585880 509
41574 122740 354
262950 387332 441
698464 221565 509
21733 223920 386
717105 637363 504
228814 112343 386
690896 766435 504
202114 818236 509
997919 117088 525
470693 997040 525
140412 552412 470
284256 55263 443
305529 694663 509
185497 421256 449
608637 462159 470
9706 675248 509
606127 483975 470
12986 419453 449
643759 489689 509
512242 632888 509
342683 805524 509
394459 236685 441
339624 582237 470
395538 233822 441
327866 308575 384
58344 765469 509
490952 686144 509
739435 761580 424
639614 12628 509
376810 376902 330
278603 903035 525
213698 776397 509
788662 419868 509
969827 527957 525
944224 763735 525
606558 263052 470
184740 322506 443
106593 399021 443
377082 757204 509
211585 951433 525
628014 783667 504
677716 135714 509
626014 635514 509
271703 622901 470
340888 105859 443
987495 559229 525
469579 494924 426
666368 37855 509
310672 487019 449
792248 442949 509
444028 548115 470
189639 236683 443
515446 832957 509
717408 938726 525
448863 380843 449
70482 436682 449
338934 388789 441
331069 699899 509
887365 701463 525
14908 129864 354
796379 497293 509
847558 517407 525
763767 504834 509
224041 606590 470
55185 713668 509
968424 327885 525
399313 176066 443
246776 667677 509
11182 624856 470
613248 410548 470
42227 865836 525
44730 208805 383
988806 461041 525
174734 450981 449
908402 341367 525
398713 113228 443
423650 228167 449
297643 656367 509
373023 342655 441
665685 473446 509
81333 201674 383
954795 162138 525
449138 769104 509
99316 137179 354
927818 915481 476
823085 72188 509
531389 405682 470
214476 731113 509
910854 845459 476
31242 894484 525
145868 235765 443
596753 730890 509
440070 528466 470
788826 631848 504
472356 62763 449
932555 903264 476
931747 327662 525
976117 809269 525
525572 110173 470
