1 10 20
100 200 125
201 210 89
900 1000 174
13179 30490 308
8101 27844 308
6342 38736 324
2092 17327 276
26830 37626 324
23208 48840 324
11363 20006 279
9677 30269 308
17087 23379 279
20918 29870 308
1410 35405 311
14708 33894 308
21790 38052 324
25520 26376 246
24267 31375 308
23741 42989 324
4616 7486 262
19980 31426 308
2857 38534 324
5774 40809 324
15132 35982 324
6360 47532 324
13167 41748 324
8114 15015 276
25409 33457 308
674 29069 308
14003 28719 308
43435 46085 314
25870 28441 308
6076 30156 308
12140 19798 279
19912 23457 269
7889 23319 279
41088 49691 314
14034 25695 282
23634 26091 264
1036 21052 279
10698 11623 268
33137 38484 324
10911 21845 279
11198 37468 324
10751 29647 308
8821 23594 282
8720 21370 279
5253 40995 324
6768 46747 324
7386 23450 279
18719 40480 324
1385 18727 279
1199 37956 324
35666 38343 306
13468 40276 324
20985 42671 324
19588 25619 282
12315 14767 276
21445 39720 324
41487 49501 314
5543 29776 308
2411 15825 276
22044 31575 308
8049 10716 260
14682 31083 308
24274 25088 264
17564 18770 279
18122 22951 274
1924 9390 262
16188 20346 279
22123 43217 324
25176 38854 324
23620 35109 311
31981 48261 324
8841 37285 324
4131 38135 324
6789 8162 257
38943 49389 314
5900 45784 324
5317 45316 324
33257 37152 324
23350 34728 311
8397 47623 324
12529 24675 282
9936 27899 308
14335 19305 279
27812 28749 259
14157 32333 308
7712 49005 324
14579 17415 271
40127 46822 314
36477 43352 306
19743 28809 308
20837 27338 308
30802 36133 324
5488 49267 324
13282 44987 324
28752 34234 285
821 37761 324
3268 48676 324
16917 36524 324
28902 48496 324
26089 39518 324
3091 7881 262
7798 16503 276
8478 31189 308
21530 24298 282
36401 47941 314
21047 38601 324
12632 23508 279
21151 45142 324
16890 48644 324
9981 11604 268
908 27180 308
14 2851 209
5128 47506 324
21259 23422 269
13531 16182 271
25144 45941 324
16844 34172 308
38996 42773 306
16720 32375 308
14593 25367 282
25336 25730 246
23907 29171 308
3725 31528 308
26431 47749 324
16723 30666 308
15467 47934 324
22361 27090 308
20065 44164 324
45632 48439 314
1655 47085 324
18619 29273 308
23578 30640 308
34384 37523 324
31322 49736 324
24507 30485 308
42080 46317 314
836 29900 308
17399 49904 324
20538 35709 324
16817 44056 324
14568 37850 324
17097 23595 282
19989 32323 308
14735 46805 324
18605 41778 324
7987 25315 282
25871 30003 308
9087 35671 324
19980 38196 324
14710 22348 279
30971 49643 324
439 34560 311
8322 40020 324
8994 29551 308
4862 49973 324
7174 26952 308
8186 11702 268
10343 46393 324
16960 46577 324
15403 40034 324
23282 42296 324
29368 36155 324
4291 43682 324
10476 18548 279
2376 35482 311
24058 36982 324
41887 45019 288
1558 17202 276
9473 36655 324
20383 26391 282
15328 45503 324
4754 16427 276
11694 25481 282
16014 41802 324
22388 46008 324
42964 48721 314
7867 36759 324
1693 14389 276
3160 44639 324
21573 41372 324
46291 47696 314
2096 49703 324
44704 48653 314
16045 49296 324
3624 36527 324
31004 37536 324
36512 40769 306
32219 37258 324
13853 25411 282
17531 47786 324
739 7453 262
6258 34546 311
6301 15779 276
5305 34306 311
23517 26436 282
8123 16213 276
486 18252 279
19334 35156 311
12877 24255 282
41674 42777 288
