880012 880052 295
885016 885047 233
890009 890029 277
895001 895012 189
1 10000 262
1 2 2
1 1 1
9999 10000 92
267 360 144
310 347 144
351 341 126
404 440 134
467 502 142
507 498 111
550 611 137
602 648 132
652 603 145
710 774 153
753 714 140
802 788 122
854 809 135
909 969 174
968 1040 156
1008 1078 169
1051 1079 169
1110 1193 182
1165 1167 120
1219 1303 177
1268 1298 146
1300 1351 177
1366 1427 172
1417 1491 172
1466 1523 172
1511 1591 167
1551 1547 154
1602 1676 180
1658 1651 136
1710 1746 180
1767 1817 162
1802 1868 162
1862 1958 175
1910 1864 175
1956 1928 175
2011 1964 144
2061 2069 157
2112 2198 170
2166 2131 170
2209 2285 183
2257 2346 183
2315 2310 152
2354 2441 165
2414 2460 165
2464 2425 209
2500 2484 178
2564 2563 54
2600 2615 178
2661 2680 147
2713 2770 173
2750 2727 160
2819 2785 173
2866 2906 173
2902 2873 173
2963 2915 217
3017 3063 155
3052 3141 186
3112 3069 186
3160 3177 199
3215 3173 199
3267 3302 137
3313 3352 181
3350 3341 137
3413 3379 181
3454 3499 181
3507 3477 181
3551 3633 194
3612 3699 207
3659 3646 163
3709 3758 238
3761 3743 176
3817 3853 176
3866 3846 145
3905 3953 189
3963 3928 189
4004 4070 189
4050 4089 158
4114 4179 189
4159 4218 158
4200 4190 109
4266 4299 171
4316 4397 215
4367 4352 171
4410 4488 184
4453 4542 184
4511 4518 184
4568 4605 171
4602 4621 153
4666 4678 122
4706 4738 153
4758 4809 197
4801 4879 166
4852 4852 47
4916 4917 42
4950 4949 73
5008 5102 179
5057 5028 179
5119 5150 148
5152 5189 179
5217 5304 192
5254 5340 192
5304 5377 192
5365 5416 161
5400 5415 161
5468 5542 192
5510 5561 205
5557 5635 236
5604 5555 236
5669 5745 205
5710 5809 205
5753 5716 174
5811 5878 218
5861 5918 174
5910 5951 187
5956 6020 187
6010 6009 143
6055 6102 187
6101 6157 187
6162 6240 262
6208 6202 156
6267 6313 156
6311 6278 156
6359 6340 200
6408 6486 169
6469 6501 169
6501 6548 200
6551 6600 244
6609 6586 244
6664 6760 182
6710 6722 138
6764 6782 182
6814 6908 182
6868 6906 182
6907 6973 257
6966 7063 195
7008 7044 195
7051 7047 120
7103 7058 151
7163 7240 195
7204 7276 164
7267 7227 164
7315 7403 208
7354 7387 164
7411 7417 164
7469 7427 164
7514 7593 208
7569 7592 177
7618 7571 177
7660 7708 177
7707 7673 177
7758 7780 146
7805 7861 177
7861 7919 190
7901 7854 190
7965 7957 252
8006 7967 190
8058 8142 190
8105 8190 190
8156 8183 177
8215 8284 190
8257 8279 190
8316 8289 203
8353 8416 159
8419 8508 203
8467 8488 203
8506 8589 203
8552 8602 172
8613 8677 172
8653 8618 172
8718 8778 216
8763 8845 172
8811 8800 141
8865 8849 172
8906 8910 141
8957 8916 154
9007 9010 79
9052 9105 185
9100 9052 185
9163 9195 185
9217 9174 185
9251 9264 260
9313 9337 154
9355 9382 198
9403 9425 154
9460 9464 92
9516 9472 198
9561 9550 123
9614 9621 123
9663 9669 185
9716 9777 167
9762 9855 211
9806 9855 211
