1 1 1
1 2 2
949186 403825 525
911592 80250 525
964442 271393 525
345125 35020 443
142690 574782 470
418469 481182 444
583171 474874 470
300826 174172 443
955815 122460 525
158352 75518 383
805322 393596 509
927922 810610 525
964269 507747 525
422372 519455 470
747457 856023 525
698807 709559 504
432785 952857 525
855765 22812 525
426249 843754 525
335144 671842 509
401209 273632 441
492255 858556 525
452963 220054 449
64176 775975 509
47419 648459 509
363033 759197 509
131871 699529 509
928700 345377 525
304415 355204 441
842295 50605 525
91743 500112 449
252831 16067 443
610775 672975 509
540564 141497 470
564478 212563 470
507696 432601 444
284558 649123 509
937444 49221 525
916000 205005 525
725062 32134 509
111532 899041 525
788018 309013 509
930167 354102 525
556717 628614 509
987014 451241 525
972263 601612 525
732673 365143 509
536853 986925 525
131552 899862 525
943651 27553 525
424624 470500 444
327016 700645 509
560469 317237 470
675035 413083 509
642546 17623 509
443455 627041 509
236481 52263 443
494581 461776 426
953515 25750 525
876045 370430 525
366601 757121 509
470379 961225 525
310769 733519 509
689795 372979 509
869758 142531 525
373498 477881 449
599817 892256 525
183551 622016 470
484990 54783 449
852383 758414 525
391279 103581 443
996485 211371 525
180571 6585 383
489820 815550 509
552367 31374 470
419879 428161 418
151705 788008 509
222793 715031 509
767066 230521 509
996622 950360 458
716221 455142 509
325867 750049 509
597865 960095 525
612775 998525 525
361742 693997 509
586472 477168 470
989084 565826 525
913934 227202 525
887027 157619 525
998915 22126 525
984713 180774 525
899571 944716 507
135528 903184 525
631378 347592 509
436524 306467 449
656253 798092 504
281485 17761 443
379086 874179 525
17503 615930 470
878063 129578 525
891782 29114 525
311269 903959 525
647657 407292 509
97143 782039 509
929500 890270 476
231119 567059 470
174786 150022 383
467574 539943 470
791150 852166 525
672521 119759 509
894484 537620 525
734587 611596 509
651792 315277 509
86205 694012 509
734460 100228 509
530704 83900 470
888776 834692 525
568513 138182 470
49523 438995 449
870214 949861 507
999934 124396 525
18172 695330 509
638823 129503 509
607624 925582 525
542880 680833 509
338287 438867 449
462301 207216 449
142217 19039 354
446523 743968 509
33040 369811 443
449093 149061 449
17370 100842 351
379099 500288 449
717317 636368 504
598281 933073 525
830206 907749 525
106693 316302 443
776793 350674 509
791678 948457 525
796768 246699 509
872061 520880 525
615473 754863 509
942376 479030 525
597712 239102 470
245666 176042 443
329083 989824 525
396821 602211 470
387029 462531 449
813448 772282 468
840852 32653 525
55193 118180 354
855236 800756 525
687293 200576 509
222532 333635 443
58253 680985 509
471132 979985 525
852657 770794 525
3313 622601 470
192402 382712 443
972429 935286 507
672593 904777 525
933505 640785 525
210648 508459 449
446237 91764 449
981138 52781 525
445861 478302 444
868603 216821 525
260459 168435 443
301543 85450 443
9311 557398 470
550164 711188 509
144119 461392 449
648800 971709 525
432770 161373 449
187571 966492 525
402393 404193 343
873497 318424 525
166539 230416 386
694151 79865 509
950990 965827 414
337301 77769 443
486499 320636 449
958716 837247 525
453022 982871 525
984957 972414 427
277462 515261 470
502290 568591 470
904759 634061 525
47281 738861 509
144117 807390 509
641638 852013 525
135296 108876 349
519251 987968 525
918397 516163 525
145913 264574 443
597115 492060 470
544833 752017 509
324989 954698 525
805284 74594 509
728316 784857 468
33870 858466 525
561551 413157 470
670954 919552 525
861497 815411 525
351540 534488 470
614432 436948 470
74164 870867 525
862129 139229 525
113154 60663 354
96084 432205 449
409802 901091 525
905759 316172 525
598962 282130 470
478730 736666 509
330562 680549 509
354723 982341 525
241093 902591 525
297325 750156 509
859335 573930 525
687265 967217 525
143749 316787 443
924945 946922 507
413559 544792 470
972390 391376 525
273177 819861 509
864567 95965 525
816795 930192 525
640365 401534 509
717137 339035 509
946356 615711 525
687766 925256 525
825512 91260 509
975437 580800 525
445696 824912 509
885724 432888 525
628245 855395 525
117916 255429 443
340341 659851 509
908417 889898 445
421134 58239 449
985046 629713 525
275572 958920 525
283452 60952 443
187129 693680 509
155479 402616 443
557916 571621 421
807690 490556 509
816683 237679 509
233713 887382 525
426897 154983 449
386687 72890 443
661886 783510 504
62943 165952 383
163516 705159 509
962120 88367 525
622186 640384 509
796943 182772 509
145427 433083 449
369514 653619 509
696913 290795 509
369859 308368 441
131018 749496 509
765607 508138 509
297408 393762 441
517231 455790 470
806753 488023 509
877033 523981 525
940293 652779 525
558504 564626 359
852072 281411 525
750257 490341 509
301311 350288 441
220448 651234 509
192050 932553 525
499809 10402 449
283867 376520 441
249600 650690 509
275740 638654 509
739326 147854 509
172466 274095 443
864373 908436 445
36668 375282 443
330808 492682 449
131522 450399 449
87073 323282 443
160855 367344 443
449996 269298 449
505990 259945 449
437863 589864 470
886949 892612 445
970708 877265 507
647607 278269 509
597410 262116 470
12833 961542 525
831749 960062 525
244228 706614 509
445283 271016 449
154287 156461 383
313759 302137 384
334474 554168 470
